Random_forest
…
# Set up the initial tuning grid for finding best mtry and min_n (hyperparameters)
# Match mtry with number of predictor variables (35) following preprocessing divided by three
# Match min_n to sqrt (rounded up) of number of predictor variables (11)
# Expanding tuning grid below because the small one was kinda shit for min_n
rf_param <-
  GC_wflow %>%
  parameters() %>%
  update(mtry = mtry(range = c(1L, 35L)),
         min_n = min_n(range = c(1L, 11L)))

rf_tune_grid <- grid_regular(rf_param, levels = 35)

rf_tune_grid

## # A tibble: 385 x 2
##     mtry min_n
##    <int> <int>
##  1     1     1
##  2     2     1
##  3     3     1
##  4     4     1
##  5     5     1
##  6     6     1
##  7     7     1
##  8     8     1
##  9     9     1
## 10    10     1
## # ... with 375 more rows
…
show_best(final_res, metric = "rsq")

## # A tibble: 1 x 7
##   .workflow  .metric .estimator  mean     n std_err .config             
##   <list>     <chr>   <chr>      <dbl> <int>   <dbl> <chr>               
## 1 <workflow> rsq     standard   0.631     1      NA Preprocessor1_Model1

# Compare predicted GC_bact values to test GC_bact
final_res %>% 
  collect_predictions(summarize = FALSE) %>% arrange(desc(GC_bact))

## # A tibble: 112 x 5
##    id               .pred  .row GC_bact .config             
##    <chr>            <dbl> <int>   <dbl> <chr>               
##  1 train/test split 0.672    63   0.716 Preprocessor1_Model1
##  2 train/test split 0.672   287   0.710 Preprocessor1_Model1
##  3 train/test split 0.695   352   0.708 Preprocessor1_Model1
##  4 train/test split 0.696   290   0.702 Preprocessor1_Model1
##  5 train/test split 0.666   178   0.700 Preprocessor1_Model1
##  6 train/test split 0.689    83   0.698 Preprocessor1_Model1
##  7 train/test split 0.699   209   0.697 Preprocessor1_Model1
##  8 train/test split 0.659   117   0.692 Preprocessor1_Model1
##  9 train/test split 0.693   211   0.689 Preprocessor1_Model1
## 10 train/test split 0.695   221   0.689 Preprocessor1_Model1
## # ... with 102 more rows
…
